{
  "formatVersion": 1,
  "database": {
    "version": 1,
    "identityHash": "1825230626234128589047ffbfb8456d",
    "entities": [
      {
        "tableName": "ui",
        "createSql": "CREATE TABLE IF NOT EXISTS `${TABLE_NAME}` (`top_to_bottom` INTEGER NOT NULL, `left_to_right` INTEGER NOT NULL, `uri` TEXT NOT NULL, `path` TEXT NOT NULL, PRIMARY KEY(`path`))",
        "fields": [
          {
            "fieldPath": "topToBottom",
            "columnName": "top_to_bottom",
            "affinity": "INTEGER",
            "notNull": true
          },
          {
            "fieldPath": "leftToRight",
            "columnName": "left_to_right",
            "affinity": "INTEGER",
            "notNull": true
          },
          {
            "fieldPath": "uri",
            "columnName": "uri",
            "affinity": "TEXT",
            "notNull": true
          },
          {
            "fieldPath": "path",
            "columnName": "path",
            "affinity": "TEXT",
            "notNull": true
          }
        ],
        "primaryKey": {
          "columnNames": [
            "path"
          ],
          "autoGenerate": false
        },
        "indices": [],
        "foreignKeys": []
      }
    ],
    "views": [],
    "setupQueries": [
      "CREATE TABLE IF NOT EXISTS room_master_table (id INTEGER PRIMARY KEY,identity_hash TEXT)",
      "INSERT OR REPLACE INTO room_master_table (id,identity_hash) VALUES(42, '1825230626234128589047ffbfb8456d')"
    ]
  }
}